1767|234234|15|00|0||251.38
1767|234234|07|31|0|251.38|0.00
4330|846447|15|00|0|00100203100000027400|200.00
4330|846447|07|31|0|200.00|0.00
4330|846448|15|00|0|00100203100000027700|200.00
4330|846448|07|31|0|200.00|0.00
4330|846449|15|00|0|00100203100000027500|200.00
4330|846449|07|31|0|200.00|0.00
4330|846450|15|00|0|00100203100000027900|200.00
4330|846450|07|31|0|200.00|0.00
4330|846451|15|00|0|00100203100000027600|200.00
4330|846451|07|31|0|200.00|0.00
4477|136000|15|00|0|00100503100000021900|335.16
4477|136000|07|31|0|335.16|0.00
4477|136001|15|00|0|00100503100000029600|425.00
4477|136001|07|31|0|425.00|0.00
4477|136003|15|00|0|00100503100000029700|340.00
4477|136003|07|31|0|340.00|0.00
4477|136004|15|00|0|00100503100000021700|167.58
4477|136004|07|31|0|167.58|0.00
4477|136005|15|00|0|00100503100000029800|425.00
4477|136005|07|31|0|425.00|0.00
4477|136006|15|00|0|0100503100000022100|251.38
4477|136006|07|31|0|251.38|0.00
4477|136007|15|00|0|00100503100000029900|255.00
4477|136007|07|31|0|255.00|0.00
4477|136008|15|00|0|00100503100000021800|335.16
4477|136008|07|31|0|335.16|0.00
6617|8304|15|00|0|00100503100000028500|200.00
6617|8304|07|31|0|200.00|0.00
6617|8305|15|00|0|00100503100000028400|200.00
6617|8305|07|31|0|200.00|0.00
4477|136010|15|00|0|00100503100000029400|340.00
4477|136010|07|31|0|340.00|0.00
6617|8306|15|00|0|00100503100000028600|200.00
6617|8306|07|31|0|200.00|0.00
6617|8307|15|00|0|00100503100000028700|200.00
6617|8307|07|31|0|200.00|0.00
4477|136011|15|00|0|00100503100000029500|510.00
4477|136011|07|31|0|510.00|0.00
6617|8308|15|00|0|00100503100000028800|200.00
6617|8308|07|31|0|200.00|0.00
4477|136012|15|00|0|00100503100000021400|426.42
4477|136012|07|31|0|426.42|0.00
4477|136013|15|00|0|00100503100000022000|251.38
4477|136013|07|31|0|251.38|0.00
6617|8309|15|00|0|00100503100000031200|511.70
6617|8309|07|31|0|511.70|0.00
6617|8310|15|00|0|00100503100000031300|511.70
6617|8310|07|31|0|511.70|0.00
6617|8311|15|00|0|00100503100000031400|341.14
6617|8311|07|31|0|341.14|0.00
6617|8312|15|00|0|00100503100000031500|426.42
6617|8312|07|31|0|426.42|0.00
6617|8313|15|00|0|00100503100000031600|426.42
6617|8313|07|31|0|426.42|0.00
7403|556712|15|00|0|00100403100000016100|251.38
7403|556712|07|31|0|251.38|0.00
7403|556713|15|00|0|00100403100000016200|251.38
7403|556713|07|31|0|251.38|0.00
4662|771645|15|00|0|00100303100000037000|255.86
4662|771645|07|31|0|255.86|0.00
117|838084|15|00|0|PLATANITOS|2,011.00
117|838084|07|31|0|2,011.00|0.00
117|838085|15|00|0|FLOR DE DURAZNO|672.00
117|838085|07|31|0|672.00|0.00
6440|312013|15|00|0|00100203100000030800|336.00
6440|312013|07|31|0|336.00|0.00
6440|312015|15|00|0|00100203100000031400|419.00
6440|312015|07|31|0|419.00|0.00
6440|312017|15|00|0|00100203100000031100|419.00
6440|312017|07|31|0|419.00|0.00
6440|312018|15|00|0|00100203100000031200|419.00
6440|312018|07|31|0|419.00|0.00
6440|312021|15|00|0|00100203100000031300|336.00
6440|312021|07|31|0|336.00|0.00
6440|312023|15|00|0|00100203100000030900|252.00
6440|312023|07|31|0|252.00|0.00
6440|312024|15|00|0|0010203100000031000|419.00
6440|312024|07|31|0|419.00|0.00
1767|295788|15|00|0||426.42
1767|295788|07|31|0|426.42|0.00
1767|298558|15|00|0||426.42
1767|298558|07|31|0|426.42|0.00
1767|300272|15|00|0||50.00
1767|300272|07|31|0|50.00|0.00
1767|300582|15|00|0||50.00
1767|300582|07|31|0|50.00|0.00
420|700554|15|00|0|00100303100000022300|341.14
420|700554|07|31|0|341.14|0.00
4477|136199|15|00|0|00100403100000026200|167.58
4477|136199|07|31|0|167.58|0.00
4477|136202|15|00|0|00100403100000025900|167.58
4477|136202|07|31|0|167.58|0.00
117|838163|15|00|0|00100303100000040900|502.74
117|838163|07|31|0|502.74|0.00
117|838165|15|00|0|00100303100000040700|251.38
117|838165|07|31|0|251.38|0.00
4662|771930|15|00|0|00100303100000017900|502.74
4662|771930|07|31|0|502.74|0.00
420|700710|15|00|0|00100303100000013800|921.70
420|700710|07|31|0|921.70|0.00
420|700712|15|00|0|00100303100000001380|921.70
420|700712|07|31|0|921.70|0.00
1767|411807|15|00|0||419.00
1767|411807|07|31|0|419.00|0.00
1767|412062|15|00|0||419.00
1767|412062|07|31|0|419.00|0.00
1767|412281|15|00|0||419.00
1767|412281|07|31|0|419.00|0.00
1767|413478|15|00|0||419.00
1767|413478|07|31|0|419.00|0.00
1767|413634|15|00|0||342.00
1767|413634|07|31|0|342.00|0.00
1767|413799|15|00|0||325.00
1767|413799|07|31|0|325.00|0.00
1767|414066|15|00|0||170.00
1767|414066|07|31|0|170.00|0.00
1767|625151|15|00|0||167.58
1767|625151|07|31|0|167.58|0.00
1767|628842|15|00|0||255.86
1767|628842|07|31|0|255.86|0.00
1767|632649|15|00|0||255.86
1767|632649|07|31|0|255.86|0.00
8175|686273|15|00|0|00100403100000011900|167.58
8175|686273|07|31|0|167.58|0.00
7403|556872|15|00|0|00100403100000039500|335.16
7403|556872|07|31|0|335.16|0.00
1767|632863|15|00|0||255.86
1767|632863|07|31|0|255.86|0.00
1767|633182|15|00|0||255.86
1767|633182|07|31|0|255.86|0.00
4477|136336|15|00|0|00100403100000011600|167.58
4477|136336|07|31|0|167.58|0.00
4477|136338|15|00|0|001004031000011800|167.58
4477|136338|07|31|0|167.58|0.00
4477|136339|15|00|0|00100403100000011700|335.16
4477|136339|07|31|0|335.16|0.00
6579|50503|15|00|0|00100303100000000237|596.98
6579|50503|07|31|0|596.98|0.00
6579|50504|15|00|0|00100303100000037600|837.91
6579|50504|07|31|0|837.91|0.00
6579|50505|15|00|0|00100303100000038100|837.91
6579|50505|07|31|0|837.91|0.00
6579|50506|15|00|0|00100303100000038200|418.96
6579|50506|07|31|0|418.96|0.00
1767|638770|15|00|0||502.74
1767|638770|07|31|0|502.74|0.00
4477|136357|15|00|0|00100403100000038100|502.74
4477|136357|07|31|0|502.74|0.00
1767|640713|15|00|0||255.86
1767|640713|07|31|0|255.86|0.00
1767|641278|15|00|0||167.58
1767|641278|07|31|0|167.58|0.00
6579|50510|15|00|0|00100303100000037500|251.38
6579|50510|07|31|0|251.38|0.00
6445|172596|15|00|0|00100403100000039600|252.00
6445|172596|07|31|0|252.00|0.00
161|630770|15|00|0|00100603100000014700|345.16
161|630770|07|31|0|345.16|0.00
161|630771|15|00|0|00100603100000014100|304.00
161|630771|07|31|0|304.00|0.00
161|630772|15|00|0|00100603100000014200|261.38
161|630772|07|31|0|261.38|0.00
161|630773|15|00|0|00100603100000014300|261.38
161|630773|07|31|0|261.38|0.00
161|630774|15|00|0|00100603100000014400|428.96
161|630774|07|31|0|428.96|0.00
161|630775|15|00|0|00100603100000014500|512.74
161|630775|07|31|0|512.74|0.00
161|630776|15|00|0|00100603100000014600|177.58
161|630776|07|31|0|177.58|0.00
1767|643672|15|00|0||252.00
1767|643672|07|31|0|252.00|0.00
420|700801|15|00|0|00100303100000032600|170.57
420|700801|07|31|0|170.57|0.00
1767|646700|15|00|0||341.14
1767|646700|07|31|0|341.14|0.00
519|40097|51|01|7006317358|AUT. 40097 SER BCA E|63,000.00
420|700819|15|00|0|00100303100000032800|341.14
420|700819|07|31|0|341.14|0.00
420|700820|15|00|0|00100303100000032900|255.86
420|700820|07|31|0|255.86|0.00
420|700821|15|00|0|00100303100000033000|341.14
420|700821|07|31|0|341.14|0.00
420|700822|15|00|0|00100303100000032700|255.86
420|700822|07|31|0|255.86|0.00
161|630828|15|00|0|00100603100000006700|168.00
161|630828|07|31|0|168.00|0.00
4477|136422|15|00|0|00100403100000010900|200.00
4477|136422|07|31|0|200.00|0.00
4477|136423|15|00|0|00100403100000011000|200.00
4477|136423|07|31|0|200.00|0.00
4477|136424|15|00|0|00100403100000011200|200.00
4477|136424|07|31|0|200.00|0.00
4477|136426|15|00|0|0010403100000010900|200.00
4477|136426|07|31|0|200.00|0.00
4477|136428|15|00|0|00100403100000011100|200.00
4477|136428|07|31|0|200.00|0.00
161|630863|15|00|0|00100603100000019600|267.00
161|630863|07|31|0|267.00|0.00
161|630864|15|00|0|00100603100000019400|434.00
161|630864|07|31|0|434.00|0.00
161|630866|15|00|0|00100603100000019700|351.00
161|630866|07|31|0|351.00|0.00
161|630867|15|00|0|00100603100000019500|393.00
161|630867|07|31|0|393.00|0.00
1767|664878|15|00|0||341.14
1767|664878|07|31|0|341.14|0.00
86|460696|15|00|0|00100403210000004100|251.38
86|460696|07|31|0|251.38|0.00
1767|674268|15|00|0||511.70
1767|674268|07|31|0|511.70|0.00
6608|59528|15|00|0|00100203100000037500|336.00
6608|59528|07|31|0|336.00|0.00
6608|59529|15|00|0|00100203100000037200|419.00
6608|59529|07|31|0|419.00|0.00
6608|59530|15|00|0|00100203100000037700|503.00
6608|59530|07|31|0|503.00|0.00
6579|50544|15|00|0|00100303100000037400|754.12
6579|50544|07|31|0|754.12|0.00
6608|59533|15|00|0|00100203100000037300|251.38
6608|59533|07|31|0|251.38|0.00
6608|59536|15|00|0|00100203100000037600|251.38
6608|59536|07|31|0|251.38|0.00
6608|59537|15|00|0|00100203100000037400|335.16
6608|59537|07|31|0|335.16|0.00
186|619811|15|00|0|00100403100000038200|251.38
186|619811|07|31|0|251.38|0.00
161|630909|15|00|0|00100603100000002100|1,509.00
161|630909|07|31|0|1,509.00|0.00
420|700918|15|00|0|00100303100000033200|251.38
420|700918|07|31|0|251.38|0.00
420|700919|15|00|0|00100303100000033300|251.38
420|700919|07|31|0|251.38|0.00
420|700921|15|00|0|00100303100000033100|502.74
420|700921|07|31|0|502.74|0.00
7499|344622|15|00|0|00100303100000024800|418.96
7499|344622|07|31|0|418.96|0.00
7499|344623|15|00|0|00100303100000025000|83.80
7499|344623|07|31|0|83.80|0.00
4328|498715|15|00|0|00100203100000033100|418.96
4328|498715|07|31|0|418.96|0.00
4328|498717|15|00|0|0010020310000003300|586.54
4328|498717|07|31|0|586.54|0.00
4328|498718|15|00|0|00100203100000033200|754.12
4328|498718|07|31|0|754.12|0.00
4328|498719|15|00|0|00100203100000033300|754.12
4328|498719|07|31|0|754.12|0.00
4328|498721|15|00|0|00100203100000033400|418.96
4328|498721|07|31|0|418.96|0.00
1767|702265|15|00|0||772.00
1767|702265|07|31|0|772.00|0.00
1767|702665|15|00|0||256.00
1767|702665|07|31|0|256.00|0.00
7492|629433|15|00|0|00100203100000042400|335.16
7492|629433|07|31|0|335.16|0.00
7492|629435|15|00|0|00100203100000041900|418.96
7492|629435|07|31|0|418.96|0.00
420|700942|15|00|0|00100303100000022300|341.14
420|700942|07|31|0|341.14|0.00
420|700943|15|00|0|00100303100000039100|341.14
420|700943|07|31|0|341.14|0.00
7492|629436|15|00|0|00100203100000042300|418.96
7492|629436|07|31|0|418.96|0.00
300|583371|15|00|0|00100203100000042200|251.38
300|583371|07|31|0|251.38|0.00
300|583372|15|00|0|00100203100000042000|251.38
300|583372|07|31|0|251.38|0.00
1767|709508|15|00|0||418.96
1767|709508|07|31|0|418.96|0.00
1767|709827|15|00|0||502.74
1767|709827|07|31|0|502.74|0.00
4662|772133|15|00|0|00100303100000028600|257.00
4662|772133|07|31|0|257.00|0.00
4662|772134|15|00|0|00100303100000028600|0.86
4662|772134|07|31|0|.86|0.00
7003|688218|15|00|0|00100303100000033700|336.00
4328|498775|15|00|0|00100203100000043100|335.16
4328|498775|07|31|0|335.16|0.00
4328|498776|15|00|0|00100203100000043200|335.16
4328|498776|07|31|0|335.16|0.00
4328|498777|15|00|0|00100203100000043300|418.96
4328|498777|07|31|0|418.96|0.00
4328|498778|15|00|0|00100203100000043400|418.96
4328|498778|07|31|0|418.96|0.00
4328|498778|00|39|0||418.96
4328|498780|15|00|0|00100203100000043400|418.96
4328|498780|07|31|0|418.96|0.00
7499|344674|15|00|0|00100303100000041100|418.96
7499|344674|07|31|0|418.96|0.00
4328|498787|15|00|0|00100203100000043500|335.16
4328|498787|07|31|0|335.16|0.00
4328|498788|15|00|0|00100203100000043600|251.38
4328|498788|07|31|0|251.38|0.00
4328|498789|15|00|0|00100203100000043700|335.16
4328|498789|07|31|0|335.16|0.00
161|631004|15|00|0|00100603100000012600|427.00
161|631004|07|31|0|427.00|0.00
1767|725248|15|00|0||255.86
1767|725248|07|31|0|255.86|0.00
161|631008|15|00|0|00100603100000012500|426.42
161|631008|07|31|0|426.42|0.00
161|631013|15|00|0|00100603100000012800|299.00
161|631013|07|31|0|299.00|0.00
161|631014|15|00|0|00100603100000012400|514.00
161|631014|07|31|0|514.00|0.00
161|631015|15|00|0|00100603100000012700|427.00
161|631015|07|31|0|427.00|0.00
161|631014|00|39|0||514.00
161|631016|15|00|0|00100603100000012400|214.00
161|631016|07|31|0|214.00|0.00
161|631019|15|00|0|00100603100000013800|171.00
161|631019|07|31|0|171.00|0.00
161|631020|15|00|0|00100603100000013900|427.00
161|631020|07|31|0|427.00|0.00
161|631021|15|00|0|00100603100000013600|256.00
161|631021|07|31|0|256.00|0.00
161|631022|15|00|0|00100603100000013700|256.00
161|631022|07|31|0|256.00|0.00
161|631023|15|00|0|0010060310000001400|171.00
161|631023|07|31|0|171.00|0.00